<?xml version="1.0" encoding="utf-8"?>
<!-- Generator: Adobe Illustrator 17.1.0, SVG Export Plug-In . SVG Version: 6.00 Build 0)  -->
<!DOCTYPE svg PUBLIC "-//W3C//DTD SVG 1.1//EN" "http://www.w3.org/Graphics/SVG/1.1/DTD/svg11.dtd">
<svg version="1.1" id="Layer_1" xmlns="http://www.w3.org/2000/svg" xmlns:xlink="http://www.w3.org/1999/xlink" x="0px" y="0px"
	 viewBox="0 0 15.3 15.1" enable-background="new 0 0 15.3 15.1" xml:space="preserve">
<circle opacity="0.8" cx="7.6" cy="7.6" r="7.5"/>
<polygon fill="#FFFFFF" points="12.7,9.5 12.2,10 7.6,4.6 3.1,10 2.6,9.5 7.6,3.5 "/>
</svg>
