<?xml version="1.0" encoding="utf-8"?>
<!-- Generator: Adobe Illustrator 17.0.0, SVG Export Plug-In . SVG Version: 6.00 Build 0)  -->
<!DOCTYPE svg PUBLIC "-//W3C//DTD SVG 1.1//EN" "http://www.w3.org/Graphics/SVG/1.1/DTD/svg11.dtd">
<svg version="1.1" id="Layer_1" xmlns="http://www.w3.org/2000/svg" xmlns:xlink="http://www.w3.org/1999/xlink" x="0px" y="0px"
	 width="33px" height="33px" viewBox="0 0 33 33" enable-background="new 0 0 33 33" xml:space="preserve">
<rect y="0" fill="#D2242A" width="33" height="33"/>
<g>
	<g>
		<rect x="5.714" y="8.766" fill="#FFFFFF" width="9.074" height="3.094"/>
		<rect x="17.265" y="8.766" fill="#FFFFFF" width="9.074" height="3.094"/>
	</g>
	<g>
		<rect x="5.714" y="14.953" fill="#FFFFFF" width="9.074" height="3.094"/>
		<rect x="17.265" y="14.953" fill="#FFFFFF" width="9.074" height="3.094"/>
	</g>
	<g>
		<rect x="5.714" y="21.141" fill="#FFFFFF" width="9.074" height="3.094"/>
		<rect x="17.265" y="21.141" fill="#FFFFFF" width="9.074" height="3.094"/>
	</g>
</g>
</svg>
