<?xml version="1.0" encoding="utf-8"?>
<!-- Generator: Adobe Illustrator 17.0.0, SVG Export Plug-In . SVG Version: 6.00 Build 0)  -->
<!DOCTYPE svg PUBLIC "-//W3C//DTD SVG 1.1//EN" "http://www.w3.org/Graphics/SVG/1.1/DTD/svg11.dtd">
<svg version="1.1" id="Layer_2" xmlns="http://www.w3.org/2000/svg" xmlns:xlink="http://www.w3.org/1999/xlink" x="0px" y="0px"
	 width="17px" height="17px" viewBox="0 0 17 17" enable-background="new 0 0 17 17" xml:space="preserve">
<g id="Layer_2_1_">
	<line fill="none" stroke="#FFFFFF" stroke-miterlimit="10" x1="-2.5" y1="-1.5" x2="19.5" y2="18.5"/>
	<line fill="none" stroke="#FFFFFF" stroke-miterlimit="10" x1="-2.5" y1="18.5" x2="19.5" y2="-1.5"/>
</g>
</svg>
